…
| Harris Vote Share| Lower Bound| Upper Bound|
|-----------------:|-----------:|-----------:|
|          50.33077|    44.43646|    56.22509|


### State 2-Party Model and Electoral College



```
## # A tibble: 334 × 5
##     year state                month_9 month_10 D_pv2p
##    <dbl> <chr>                  <dbl>    <dbl>  <dbl>
##  1  2000 Alabama                 34.2     36.8   42.4
##  2  2000 Alaska                  25.7     25.7   32.1
##  3  2000 Arizona                 35.8     40.5   46.7
##  4  2000 Arkansas                38.0     41.4   47.2
##  5  2000 California              45.7     47.3   56.2
##  6  2000 Colorado                38.1     37     45.5
##  7  2000 Connecticut             42.9     46.4   59.3
##  8  2000 Delaware                41.8     45.8   56.7
##  9  2000 District of Columbia    72.7     72.7   NA  
## 10  2000 Florida                 41.4     43.6   50.0
## # ℹ 324 more rows
```
…
